<svg width="25" height="21" viewBox="0 0 25 21" fill="none" xmlns="http://www.w3.org/2000/svg">
<path d="M8.75034 10.0004C11.5122 10.0004 13.7505 7.76202 13.7505 5.0002C13.7505 2.23837 11.5122 0 8.75034 0C5.98852 0 3.75015 2.23837 3.75015 5.0002C3.75015 7.76202 5.98852 10.0004 8.75034 10.0004ZM12.2505 11.2504H11.5981C10.7309 11.6489 9.76601 11.8755 8.75034 11.8755C7.73468 11.8755 6.7737 11.6489 5.90257 11.2504H5.25021C2.35165 11.2504 0 13.6021 0 16.5006V18.1257C0 19.1609 0.839877 20.0008 1.87507 20.0008H12.6138C12.52 19.7351 12.481 19.4539 12.5122 19.1687L12.7778 16.7897L12.8247 16.3561L13.1333 16.0475L16.153 13.0279C15.1959 11.9458 13.8091 11.2504 12.2505 11.2504V11.2504ZM14.0201 16.9264L13.7544 19.3093C13.7115 19.7078 14.0474 20.0438 14.442 19.9969L16.821 19.7312L22.2079 14.3443L19.407 11.5434L14.0201 16.9264V16.9264ZM24.7275 10.5043L23.247 9.02379C22.8837 8.66049 22.2899 8.66049 21.9266 9.02379L20.45 10.5004L20.2899 10.6606L23.0947 13.4615L24.7275 11.8286C25.0908 11.4614 25.0908 10.8715 24.7275 10.5043V10.5043Z" fill="white"/>
</svg>
